%!PS-Adobe-3.0 EPSF-3.0
%Produced by poppler pdftops version: 0.24.5 (http://poppler.freedesktop.org)
%%Creator: TeX
%%LanguageLevel: 2
%%DocumentSuppliedResources: (atend)
%%BoundingBox: 0 0 98 98
%%HiResBoundingBox: 0 0 97.076 97.076
%%DocumentSuppliedResources: (atend)
%%EndComments
%%BeginProlog
%%BeginResource: procset xpdf 3.00 0
%%Copyright: Copyright 1996-2011 Glyph & Cog, LLC
/xpdf 75 dict def xpdf begin
% PDF special state
/pdfDictSize 15 def
/pdfSetup {
  /setpagedevice where {
    pop 2 dict begin
      /Policies 1 dict dup begin /PageSize 6 def end def
      { /Duplex true def } if
    currentdict end setpagedevice
  } {
    pop
  } ifelse
} def
/pdfSetupPaper {
  2 array astore
  /setpagedevice where {
    pop 2 dict begin
      /PageSize exch def
      /ImagingBBox null def
    currentdict end setpagedevice
  } {
    pop
  } ifelse
} def
/pdfStartPage {
  pdfDictSize dict begin
  /pdfFillCS [] def
  /pdfFillXform {} def
  /pdfStrokeCS [] def
  /pdfStrokeXform {} def
  /pdfFill [0] def
  /pdfStroke [0] def
  /pdfFillOP false def
  /pdfStrokeOP false def
  /pdfLastFill false def
  /pdfLastStroke false def
  /pdfTextMat [1 0 0 1 0 0] def
  /pdfFontSize 0 def
  /pdfCharSpacing 0 def
  /pdfTextRender 0 def
  /pdfPatternCS false def
  /pdfTextRise 0 def
  /pdfWordSpacing 0 def
  /pdfHorizScaling 1 def
  /pdfTextClipPath [] def
} def
/pdfEndPage { end } def
% PDF color state
/cs { /pdfFillXform exch def dup /pdfFillCS exch def
      setcolorspace } def
/CS { /pdfStrokeXform exch def dup /pdfStrokeCS exch def
      setcolorspace } def
/sc { pdfLastFill not { pdfFillCS setcolorspace } if
      dup /pdfFill exch def aload pop pdfFillXform setcolor
     /pdfLastFill true def /pdfLastStroke false def } def
/SC { pdfLastStroke not { pdfStrokeCS setcolorspace } if
      dup /pdfStroke exch def aload pop pdfStrokeXform setcolor
     /pdfLastStroke true def /pdfLastFill false def } def
/op { /pdfFillOP exch def
      pdfLastFill { pdfFillOP setoverprint } if } def
/OP { /pdfStrokeOP exch def
      pdfLastStroke { pdfStrokeOP setoverprint } if } def
/fCol {
  pdfLastFill not {
    pdfFillCS setcolorspace
    pdfFill aload pop pdfFillXform setcolor
    pdfFillOP setoverprint
    /pdfLastFill true def /pdfLastStroke false def
  } if
} def
/sCol {
  pdfLastStroke not {
    pdfStrokeCS setcolorspace
    pdfStroke aload pop pdfStrokeXform setcolor
    pdfStrokeOP setoverprint
    /pdfLastStroke true def /pdfLastFill false def
  } if
} def
% build a font
/pdfMakeFont {
  4 3 roll findfont
  4 2 roll matrix scale makefont
  dup length dict begin
    { 1 index /FID ne { def } { pop pop } ifelse } forall
    /Encoding exch def
    currentdict
  end
  definefont pop
} def
/pdfMakeFont16 {
  exch findfont
  dup length dict begin
    { 1 index /FID ne { def } { pop pop } ifelse } forall
    /WMode exch def
    currentdict
  end
  definefont pop
} def
% graphics state operators
/q { gsave pdfDictSize dict begin } def
/Q {
  end grestore
  /pdfLastFill where {
    pop
    pdfLastFill {
      pdfFillOP setoverprint
    } {
      pdfStrokeOP setoverprint
    } ifelse
  } if
} def
/cm { concat } def
/d { setdash } def
/i { setflat } def
/j { setlinejoin } def
/J { setlinecap } def
/M { setmiterlimit } def
/w { setlinewidth } def
% path segment operators
/m { moveto } def
/l { lineto } def
/c { curveto } def
/re { 4 2 roll moveto 1 index 0 rlineto 0 exch rlineto
      neg 0 rlineto closepath } def
/h { closepath } def
% path painting operators
/S { sCol stroke } def
/Sf { fCol stroke } def
/f { fCol fill } def
/f* { fCol eofill } def
% clipping operators
/W { clip newpath } def
/W* { eoclip newpath } def
/Ws { strokepath clip newpath } def
% text state operators
/Tc { /pdfCharSpacing exch def } def
/Tf { dup /pdfFontSize exch def
      dup pdfHorizScaling mul exch matrix scale
      pdfTextMat matrix concatmatrix dup 4 0 put dup 5 0 put
      exch findfont exch makefont setfont } def
/Tr { /pdfTextRender exch def } def
/Tp { /pdfPatternCS exch def } def
/Ts { /pdfTextRise exch def } def
/Tw { /pdfWordSpacing exch def } def
/Tz { /pdfHorizScaling exch def } def
% text positioning operators
/Td { pdfTextMat transform moveto } def
/Tm { /pdfTextMat exch def } def
% text string operators
/xyshow where {
  pop
  /xyshow2 {
    dup length array
    0 2 2 index length 1 sub {
      2 index 1 index 2 copy get 3 1 roll 1 add get
      pdfTextMat dtransform
      4 2 roll 2 copy 6 5 roll put 1 add 3 1 roll dup 4 2 roll put
    } for
    exch pop
    xyshow
  } def
}{
  /xyshow2 {
    currentfont /FontType get 0 eq {
      0 2 3 index length 1 sub {
        currentpoint 4 index 3 index 2 getinterval show moveto
        2 copy get 2 index 3 2 roll 1 add get
        pdfTextMat dtransform rmoveto
      } for
    } {
      0 1 3 index length 1 sub {
        currentpoint 4 index 3 index 1 getinterval show moveto
        2 copy 2 mul get 2 index 3 2 roll 2 mul 1 add get
        pdfTextMat dtransform rmoveto
      } for
    } ifelse
    pop pop
  } def
} ifelse
/cshow where {
  pop
  /xycp {
    0 3 2 roll
    {
      pop pop currentpoint 3 2 roll
      1 string dup 0 4 3 roll put false charpath moveto
      2 copy get 2 index 2 index 1 add get
      pdfTextMat dtransform rmoveto
      2 add
    } exch cshow
    pop pop
  } def
}{
  /xycp {
    currentfont /FontType get 0 eq {
      0 2 3 index length 1 sub {
        currentpoint 4 index 3 index 2 getinterval false charpath moveto
        2 copy get 2 index 3 2 roll 1 add get
        pdfTextMat dtransform rmoveto
      } for
    } {
      0 1 3 index length 1 sub {
        currentpoint 4 index 3 index 1 getinterval false charpath moveto
        2 copy 2 mul get 2 index 3 2 roll 2 mul 1 add get
        pdfTextMat dtransform rmoveto
      } for
    } ifelse
    pop pop
  } def
} ifelse
/Tj {
  fCol
  0 pdfTextRise pdfTextMat dtransform rmoveto
  currentpoint 4 2 roll
  pdfTextRender 1 and 0 eq {
    2 copy xyshow2
  } if
  pdfTextRender 3 and dup 1 eq exch 2 eq or {
    3 index 3 index moveto
    2 copy
    currentfont /FontType get 3 eq { fCol } { sCol } ifelse
    xycp currentpoint stroke moveto
  } if
  pdfTextRender 4 and 0 ne {
    4 2 roll moveto xycp
    /pdfTextClipPath [ pdfTextClipPath aload pop
      {/moveto cvx}
      {/lineto cvx}
      {/curveto cvx}
      {/closepath cvx}
    pathforall ] def
    currentpoint newpath moveto
  } {
    pop pop pop pop
  } ifelse
  0 pdfTextRise neg pdfTextMat dtransform rmoveto
} def
/TJm { 0.001 mul pdfFontSize mul pdfHorizScaling mul neg 0
       pdfTextMat dtransform rmoveto } def
/TJmV { 0.001 mul pdfFontSize mul neg 0 exch
        pdfTextMat dtransform rmoveto } def
/Tclip { pdfTextClipPath cvx exec clip newpath
         /pdfTextClipPath [] def } def
/Tclip* { pdfTextClipPath cvx exec eoclip newpath
         /pdfTextClipPath [] def } def
% Level 2/3 image operators
/pdfImBuf 100 string def
/pdfImStr {
  2 copy exch length lt {
    2 copy get exch 1 add exch
  } {
    ()
  } ifelse
} def
/skipEOD {
  { currentfile pdfImBuf readline
    not { pop exit } if
    (%-EOD-) eq { exit } if } loop
} def
/pdfIm { image skipEOD } def
/pdfImM { fCol imagemask skipEOD } def
/pr { 2 index 2 index 3 2 roll putinterval 4 add } def
/pdfImClip {
  gsave
  0 2 4 index length 1 sub {
    dup 4 index exch 2 copy
    get 5 index div put
    1 add 3 index exch 2 copy
    get 3 index div put
  } for
  pop pop rectclip
} def
/pdfImClipEnd { grestore } def
% shading operators
/colordelta {
  false 0 1 3 index length 1 sub {
    dup 4 index exch get 3 index 3 2 roll get sub abs 0.004 gt {
      pop true
    } if
  } for
  exch pop exch pop
} def
/funcCol { func n array astore } def
/funcSH {
  dup 0 eq {
    true
  } {
    dup 6 eq {
      false
    } {
      4 index 4 index funcCol dup
      6 index 4 index funcCol dup
      3 1 roll colordelta 3 1 roll
      5 index 5 index funcCol dup
      3 1 roll colordelta 3 1 roll
      6 index 8 index funcCol dup
      3 1 roll colordelta 3 1 roll
      colordelta or or or
    } ifelse
  } ifelse
  {
    1 add
    4 index 3 index add 0.5 mul exch 4 index 3 index add 0.5 mul exch
    6 index 6 index 4 index 4 index 4 index funcSH
    2 index 6 index 6 index 4 index 4 index funcSH
    6 index 2 index 4 index 6 index 4 index funcSH
    5 3 roll 3 2 roll funcSH pop pop
  } {
    pop 3 index 2 index add 0.5 mul 3 index  2 index add 0.5 mul
    funcCol sc
    dup 4 index exch mat transform m
    3 index 3 index mat transform l
    1 index 3 index mat transform l
    mat transform l pop pop h f*
  } ifelse
} def
/axialCol {
  dup 0 lt {
    pop t0
  } {
    dup 1 gt {
      pop t1
    } {
      dt mul t0 add
    } ifelse
  } ifelse
  func n array astore
} def
/axialSH {
  dup 0 eq {
    true
  } {
    dup 8 eq {
      false
    } {
      2 index axialCol 2 index axialCol colordelta
    } ifelse
  } ifelse
  {
    1 add 3 1 roll 2 copy add 0.5 mul
    dup 4 3 roll exch 4 index axialSH
    exch 3 2 roll axialSH
  } {
    pop 2 copy add 0.5 mul
    axialCol sc
    exch dup dx mul x0 add exch dy mul y0 add
    3 2 roll dup dx mul x0 add exch dy mul y0 add
    dx abs dy abs ge {
      2 copy yMin sub dy mul dx div add yMin m
      yMax sub dy mul dx div add yMax l
      2 copy yMax sub dy mul dx div add yMax l
      yMin sub dy mul dx div add yMin l
      h f*
    } {
      exch 2 copy xMin sub dx mul dy div add xMin exch m
      xMax sub dx mul dy div add xMax exch l
      exch 2 copy xMax sub dx mul dy div add xMax exch l
      xMin sub dx mul dy div add xMin exch l
      h f*
    } ifelse
  } ifelse
} def
/radialCol {
  dup t0 lt {
    pop t0
  } {
    dup t1 gt {
      pop t1
    } if
  } ifelse
  func n array astore
} def
/radialSH {
  dup 0 eq {
    true
  } {
    dup 8 eq {
      false
    } {
      2 index dt mul t0 add radialCol
      2 index dt mul t0 add radialCol colordelta
    } ifelse
  } ifelse
  {
    1 add 3 1 roll 2 copy add 0.5 mul
    dup 4 3 roll exch 4 index radialSH
    exch 3 2 roll radialSH
  } {
    pop 2 copy add 0.5 mul dt mul t0 add
    radialCol sc
    encl {
      exch dup dx mul x0 add exch dup dy mul y0 add exch dr mul r0 add
      0 360 arc h
      dup dx mul x0 add exch dup dy mul y0 add exch dr mul r0 add
      360 0 arcn h f
    } {
      2 copy
      dup dx mul x0 add exch dup dy mul y0 add exch dr mul r0 add
      a1 a2 arcn
      dup dx mul x0 add exch dup dy mul y0 add exch dr mul r0 add
      a2 a1 arcn h
      dup dx mul x0 add exch dup dy mul y0 add exch dr mul r0 add
      a1 a2 arc
      dup dx mul x0 add exch dup dy mul y0 add exch dr mul r0 add
      a2 a1 arc h f
    } ifelse
  } ifelse
} def
end
%%EndResource
%%EndProlog
%%BeginSetup
xpdf begin
%%EndSetup
pdfStartPage
[] 0 d
1 i
0 j
0 J
10 M
1 w
/DeviceGray {} cs
[0] sc
/DeviceGray {} CS
[0] SC
false op
false OP
{} settransfer
0 0 97.076 97.076 re
W
q
[1 0 0 1 6.018 91.057] cm
q
/DeviceGray {} CS
[0] SC
/DeviceGray {} cs
[0] sc
0.3985 w
q
q
/DeviceRGB {} cs
[0 1 0] sc
q
/DeviceRGB {} cs
[0 1 0] sc
5.51819 0 m
5.51819 3.04764 3.04764 5.51819 0 5.51819 c
-3.04764 5.51819 -5.51819 3.04764 -5.51819 0 c
-5.51819 -3.04764 -3.04764 -5.51819 0 -5.51819 c
3.04764 -5.51819 5.51819 -3.04764 5.51819 0 c
h
f
Q
q
[1 0 0 1 0 0] cm
q
/DeviceGray {} CS
[0] SC
/DeviceGray {} cs
[0] sc
Q
Q
Q
q
/DeviceRGB {} cs
[0 0 1] sc
q
/DeviceRGB {} cs
[0 0 1] sc
26.77829 0 m
26.77829 3.04764 24.30774 5.51819 21.2601 5.51819 c
18.21245 5.51819 15.7419 3.04764 15.7419 0 c
15.7419 -3.04764 18.21245 -5.51819 21.2601 -5.51819 c
24.30774 -5.51819 26.77829 -3.04764 26.77829 0 c
h
f
Q
q
[1 0 0 1 21.26 0] cm
[1 0 0 1 0 0] cm
q
/DeviceGray {} CS
[0] SC
/DeviceGray {} cs
[0] sc
Q
[1 0 0 1 -21.26 0] cm
Q
Q
q
/DeviceRGB {} cs
[1 0 1] sc
q
/DeviceRGB {} cs
[1 0 1] sc
48.03839 0 m
48.03839 3.04764 45.56784 5.51819 42.5202 5.51819 c
39.47255 5.51819 37.002 3.04764 37.002 0 c
37.002 -3.04764 39.47255 -5.51819 42.5202 -5.51819 c
45.56784 -5.51819 48.03839 -3.04764 48.03839 0 c
h
f
Q
q
[1 0 0 1 42.52 0] cm
[1 0 0 1 0 0] cm
q
/DeviceGray {} CS
[0] SC
/DeviceGray {} cs
[0] sc
Q
[1 0 0 1 -42.52 0] cm
Q
Q
q
/DeviceRGB {} cs
[0 1 0] sc
q
/DeviceRGB {} cs
[0 1 0] sc
69.2985 0 m
69.2985 3.04764 66.82796 5.51819 63.7803 5.51819 c
60.73265 5.51819 58.2621 3.04764 58.2621 0 c
58.2621 -3.04764 60.73265 -5.51819 63.7803 -5.51819 c
66.82796 -5.51819 69.2985 -3.04764 69.2985 0 c
h
f
Q
q
[1 0 0 1 63.78 0] cm
[1 0 0 1 0 0] cm
q
/DeviceGray {} CS
[0] SC
/DeviceGray {} cs
[0] sc
Q
[1 0 0 1 -63.78 0] cm
Q
Q
q
/DeviceRGB {} cs
[1 0 1] sc
q
/DeviceRGB {} cs
[1 0 1] sc
90.55861 0 m
90.55861 3.04764 88.08806 5.51819 85.0404 5.51819 c
81.99277 5.51819 79.52222 3.04764 79.52222 0 c
79.52222 -3.04764 81.99277 -5.51819 85.0404 -5.51819 c
88.08806 -5.51819 90.55861 -3.04764 90.55861 0 c
h
f
Q
q
[1 0 0 1 85.039 0] cm
[1 0 0 1 0 0] cm
q
/DeviceGray {} CS
[0] SC
/DeviceGray {} cs
[0] sc
Q
[1 0 0 1 -85.039 0] cm
Q
Q
q
/DeviceRGB {} cs
[0 1 0] sc
q
/DeviceRGB {} cs
[0 1 0] sc
5.51819 -21.2601 m
5.51819 -18.21245 3.04764 -15.7419 0 -15.7419 c
-3.04764 -15.7419 -5.51819 -18.21245 -5.51819 -21.2601 c
-5.51819 -24.30774 -3.04764 -26.77829 0 -26.77829 c
3.04764 -26.77829 5.51819 -24.30774 5.51819 -21.2601 c
h
f
Q
q
[1 0 0 1 0 -21.259] cm
[1 0 0 1 0 0] cm
q
/DeviceGray {} CS
[0] SC
/DeviceGray {} cs
[0] sc
Q
[1 0 0 1 0 21.259] cm
Q
Q
q
/DeviceRGB {} cs
[1 0 0] sc
q
/DeviceRGB {} cs
[1 0 0] sc
26.77829 -21.2601 m
26.77829 -18.21245 24.30774 -15.7419 21.2601 -15.7419 c
18.21245 -15.7419 15.7419 -18.21245 15.7419 -21.2601 c
15.7419 -24.30774 18.21245 -26.77829 21.2601 -26.77829 c
24.30774 -26.77829 26.77829 -24.30774 26.77829 -21.2601 c
h
f
Q
q
[1 0 0 1 21.26 -21.259] cm
[1 0 0 1 0 0] cm
q
/DeviceGray {} CS
[0] SC
/DeviceGray {} cs
[0] sc
Q
[1 0 0 1 -21.26 21.259] cm
Q
Q
q
/DeviceRGB {} cs
[1 0 1] sc
q
/DeviceRGB {} cs
[1 0 1] sc
48.03839 -21.2601 m
48.03839 -18.21245 45.56784 -15.7419 42.5202 -15.7419 c
39.47255 -15.7419 37.002 -18.21245 37.002 -21.2601 c
37.002 -24.30774 39.47255 -26.77829 42.5202 -26.77829 c
45.56784 -26.77829 48.03839 -24.30774 48.03839 -21.2601 c
h
f
Q
q
[1 0 0 1 42.52 -21.259] cm
[1 0 0 1 0 0] cm
q
/DeviceGray {} CS
[0] SC
/DeviceGray {} cs
[0] sc
Q
[1 0 0 1 -42.52 21.259] cm
Q
Q
q
/DeviceRGB {} cs
[1 1 0] sc
q
/DeviceRGB {} cs
[1 1 0] sc
69.2985 -21.2601 m
69.2985 -18.21245 66.82796 -15.7419 63.7803 -15.7419 c
60.73265 -15.7419 58.2621 -18.21245 58.2621 -21.2601 c
58.2621 -24.30774 60.73265 -26.77829 63.7803 -26.77829 c
66.82796 -26.77829 69.2985 -24.30774 69.2985 -21.2601 c
h
f
Q
q
[1 0 0 1 63.78 -21.259] cm
[1 0 0 1 0 0] cm
q
/DeviceGray {} CS
[0] SC
/DeviceGray {} cs
[0] sc
Q
[1 0 0 1 -63.78 21.259] cm
Q
Q
q
/DeviceRGB {} cs
[0 0 1] sc
q
/DeviceRGB {} cs
[0 0 1] sc
90.55861 -21.2601 m
90.55861 -18.21245 88.08806 -15.7419 85.0404 -15.7419 c
81.99277 -15.7419 79.52222 -18.21245 79.52222 -21.2601 c
79.52222 -24.30774 81.99277 -26.77829 85.0404 -26.77829 c
88.08806 -26.77829 90.55861 -24.30774 90.55861 -21.2601 c
h
f
Q
q
[1 0 0 1 85.039 -21.259] cm
[1 0 0 1 0 0] cm
q
/DeviceGray {} CS
[0] SC
/DeviceGray {} cs
[0] sc
Q
[1 0 0 1 -85.039 21.259] cm
Q
Q
q
/DeviceRGB {} cs
[0 1 0] sc
q
/DeviceRGB {} cs
[0 1 0] sc
5.51819 -42.5202 m
5.51819 -39.47255 3.04764 -37.002 0 -37.002 c
-3.04764 -37.002 -5.51819 -39.47255 -5.51819 -42.5202 c
-5.51819 -45.56784 -3.04764 -48.03839 0 -48.03839 c
3.04764 -48.03839 5.51819 -45.56784 5.51819 -42.5202 c
h
f
Q
q
[1 0 0 1 0 -42.519] cm
[1 0 0 1 0 0] cm
q
/DeviceGray {} CS
[0] SC
/DeviceGray {} cs
[0] sc
Q
[1 0 0 1 0 42.519] cm
Q
Q
q
/DeviceRGB {} cs
[1 1 0] sc
q
/DeviceRGB {} cs
[1 1 0] sc
26.77829 -42.5202 m
26.77829 -39.47255 24.30774 -37.002 21.2601 -37.002 c
18.21245 -37.002 15.7419 -39.47255 15.7419 -42.5202 c
15.7419 -45.56784 18.21245 -48.03839 21.2601 -48.03839 c
24.30774 -48.03839 26.77829 -45.56784 26.77829 -42.5202 c
h
f
Q
q
[1 0 0 1 21.26 -42.519] cm
[1 0 0 1 0 0] cm
q
/DeviceGray {} CS
[0] SC
/DeviceGray {} cs
[0] sc
Q
[1 0 0 1 -21.26 42.519] cm
Q
Q
q
/DeviceRGB {} cs
[1 0 0] sc
q
/DeviceRGB {} cs
[1 0 0] sc
48.03839 -42.5202 m
48.03839 -39.47255 45.56784 -37.002 42.5202 -37.002 c
39.47255 -37.002 37.002 -39.47255 37.002 -42.5202 c
37.002 -45.56784 39.47255 -48.03839 42.5202 -48.03839 c
45.56784 -48.03839 48.03839 -45.56784 48.03839 -42.5202 c
h
f
Q
q
[1 0 0 1 42.52 -42.519] cm
[1 0 0 1 0 0] cm
q
/DeviceGray {} CS
[0] SC
/DeviceGray {} cs
[0] sc
Q
[1 0 0 1 -42.52 42.519] cm
Q
Q
q
/DeviceRGB {} cs
[1 1 0] sc
q
/DeviceRGB {} cs
[1 1 0] sc
69.2985 -42.5202 m
69.2985 -39.47255 66.82796 -37.002 63.7803 -37.002 c
60.73265 -37.002 58.2621 -39.47255 58.2621 -42.5202 c
58.2621 -45.56784 60.73265 -48.03839 63.7803 -48.03839 c
66.82796 -48.03839 69.2985 -45.56784 69.2985 -42.5202 c
h
f
Q
q
[1 0 0 1 63.78 -42.519] cm
[1 0 0 1 0 0] cm
q
/DeviceGray {} CS
[0] SC
/DeviceGray {} cs
[0] sc
Q
[1 0 0 1 -63.78 42.519] cm
Q
Q
q
/DeviceRGB {} cs
[0 0 1] sc
q
/DeviceRGB {} cs
[0 0 1] sc
90.55861 -42.5202 m
90.55861 -39.47255 88.08806 -37.002 85.0404 -37.002 c
81.99277 -37.002 79.52222 -39.47255 79.52222 -42.5202 c
79.52222 -45.56784 81.99277 -48.03839 85.0404 -48.03839 c
88.08806 -48.03839 90.55861 -45.56784 90.55861 -42.5202 c
h
f
Q
q
[1 0 0 1 85.039 -42.519] cm
[1 0 0 1 0 0] cm
q
/DeviceGray {} CS
[0] SC
/DeviceGray {} cs
[0] sc
Q
[1 0 0 1 -85.039 42.519] cm
Q
Q
q
/DeviceRGB {} cs
[1 0 1] sc
q
/DeviceRGB {} cs
[1 0 1] sc
5.51819 -63.7803 m
5.51819 -60.73265 3.04764 -58.2621 0 -58.2621 c
-3.04764 -58.2621 -5.51819 -60.73265 -5.51819 -63.7803 c
-5.51819 -66.82796 -3.04764 -69.2985 0 -69.2985 c
3.04764 -69.2985 5.51819 -66.82796 5.51819 -63.7803 c
h
f
Q
q
[1 0 0 1 0 -63.779] cm
[1 0 0 1 0 0] cm
q
/DeviceGray {} CS
[0] SC
/DeviceGray {} cs
[0] sc
Q
[1 0 0 1 0 63.779] cm
Q
Q
q
/DeviceRGB {} cs
[1 0 0] sc
q
/DeviceRGB {} cs
[1 0 0] sc
26.77829 -63.7803 m
26.77829 -60.73265 24.30774 -58.2621 21.2601 -58.2621 c
18.21245 -58.2621 15.7419 -60.73265 15.7419 -63.7803 c
15.7419 -66.82796 18.21245 -69.2985 21.2601 -69.2985 c
24.30774 -69.2985 26.77829 -66.82796 26.77829 -63.7803 c
h
f
Q
q
[1 0 0 1 21.26 -63.779] cm
[1 0 0 1 0 0] cm
q
/DeviceGray {} CS
[0] SC
/DeviceGray {} cs
[0] sc
Q
[1 0 0 1 -21.26 63.779] cm
Q
Q
q
/DeviceRGB {} cs
[1 1 0] sc
q
/DeviceRGB {} cs
[1 1 0] sc
48.03839 -63.7803 m
48.03839 -60.73265 45.56784 -58.2621 42.5202 -58.2621 c
39.47255 -58.2621 37.002 -60.73265 37.002 -63.7803 c
37.002 -66.82796 39.47255 -69.2985 42.5202 -69.2985 c
45.56784 -69.2985 48.03839 -66.82796 48.03839 -63.7803 c
h
f
Q
q
[1 0 0 1 42.52 -63.779] cm
[1 0 0 1 0 0] cm
q
/DeviceGray {} CS
[0] SC
/DeviceGray {} cs
[0] sc
Q
[1 0 0 1 -42.52 63.779] cm
Q
Q
q
/DeviceRGB {} cs
[1 0 1] sc
q
/DeviceRGB {} cs
[1 0 1] sc
69.2985 -63.7803 m
69.2985 -60.73265 66.82796 -58.2621 63.7803 -58.2621 c
60.73265 -58.2621 58.2621 -60.73265 58.2621 -63.7803 c
58.2621 -66.82796 60.73265 -69.2985 63.7803 -69.2985 c
66.82796 -69.2985 69.2985 -66.82796 69.2985 -63.7803 c
h
f
Q
q
[1 0 0 1 63.78 -63.779] cm
[1 0 0 1 0 0] cm
q
/DeviceGray {} CS
[0] SC
/DeviceGray {} cs
[0] sc
Q
[1 0 0 1 -63.78 63.779] cm
Q
Q
q
/DeviceRGB {} cs
[1 0 1] sc
q
/DeviceRGB {} cs
[1 0 1] sc
90.55861 -63.7803 m
90.55861 -60.73265 88.08806 -58.2621 85.0404 -58.2621 c
81.99277 -58.2621 79.52222 -60.73265 79.52222 -63.7803 c
79.52222 -66.82796 81.99277 -69.2985 85.0404 -69.2985 c
88.08806 -69.2985 90.55861 -66.82796 90.55861 -63.7803 c
h
f
Q
q
[1 0 0 1 85.039 -63.779] cm
[1 0 0 1 0 0] cm
q
/DeviceGray {} CS
[0] SC
/DeviceGray {} cs
[0] sc
Q
[1 0 0 1 -85.039 63.779] cm
Q
Q
q
/DeviceRGB {} cs
[1 0 0] sc
q
/DeviceRGB {} cs
[1 0 0] sc
5.51819 -85.0404 m
5.51819 -81.99277 3.04764 -79.52222 0 -79.52222 c
-3.04764 -79.52222 -5.51819 -81.99277 -5.51819 -85.0404 c
-5.51819 -88.08806 -3.04764 -90.55861 0 -90.55861 c
3.04764 -90.55861 5.51819 -88.08806 5.51819 -85.0404 c
h
f
Q
q
[1 0 0 1 0 -85.039] cm
[1 0 0 1 0 0] cm
q
/DeviceGray {} CS
[0] SC
/DeviceGray {} cs
[0] sc
Q
[1 0 0 1 0 85.039] cm
Q
Q
q
/DeviceRGB {} cs
[0 1 0] sc
q
/DeviceRGB {} cs
[0 1 0] sc
26.77829 -85.0404 m
26.77829 -81.99277 24.30774 -79.52222 21.2601 -79.52222 c
18.21245 -79.52222 15.7419 -81.99277 15.7419 -85.0404 c
15.7419 -88.08806 18.21245 -90.55861 21.2601 -90.55861 c
24.30774 -90.55861 26.77829 -88.08806 26.77829 -85.0404 c
h
f
Q
q
[1 0 0 1 21.26 -85.039] cm
[1 0 0 1 0 0] cm
q
/DeviceGray {} CS
[0] SC
/DeviceGray {} cs
[0] sc
Q
[1 0 0 1 -21.26 85.039] cm
Q
Q
q
/DeviceRGB {} cs
[1 0 1] sc
q
/DeviceRGB {} cs
[1 0 1] sc
48.03839 -85.0404 m
48.03839 -81.99277 45.56784 -79.52222 42.5202 -79.52222 c
39.47255 -79.52222 37.002 -81.99277 37.002 -85.0404 c
37.002 -88.08806 39.47255 -90.55861 42.5202 -90.55861 c
45.56784 -90.55861 48.03839 -88.08806 48.03839 -85.0404 c
h
f
Q
q
[1 0 0 1 42.52 -85.039] cm
[1 0 0 1 0 0] cm
q
/DeviceGray {} CS
[0] SC
/DeviceGray {} cs
[0] sc
Q
[1 0 0 1 -42.52 85.039] cm
Q
Q
q
/DeviceRGB {} cs
[1 0 1] sc
q
/DeviceRGB {} cs
[1 0 1] sc
69.2985 -85.0404 m
69.2985 -81.99277 66.82796 -79.52222 63.7803 -79.52222 c
60.73265 -79.52222 58.2621 -81.99277 58.2621 -85.0404 c
58.2621 -88.08806 60.73265 -90.55861 63.7803 -90.55861 c
66.82796 -90.55861 69.2985 -88.08806 69.2985 -85.0404 c
h
f
Q
q
[1 0 0 1 63.78 -85.039] cm
[1 0 0 1 0 0] cm
q
/DeviceGray {} CS
[0] SC
/DeviceGray {} cs
[0] sc
Q
[1 0 0 1 -63.78 85.039] cm
Q
Q
q
/DeviceRGB {} cs
[0 1 0] sc
q
/DeviceRGB {} cs
[0 1 0] sc
90.55861 -85.0404 m
90.55861 -81.99277 88.08806 -79.52222 85.0404 -79.52222 c
81.99277 -79.52222 79.52222 -81.99277 79.52222 -85.0404 c
79.52222 -88.08806 81.99277 -90.55861 85.0404 -90.55861 c
88.08806 -90.55861 90.55861 -88.08806 90.55861 -85.0404 c
h
f
Q
q
[1 0 0 1 85.039 -85.039] cm
[1 0 0 1 0 0] cm
q
/DeviceGray {} CS
[0] SC
/DeviceGray {} cs
[0] sc
Q
[1 0 0 1 -85.039 85.039] cm
Q
Q
5.71744 0 m
15.54265 0 l
26.97754 0 m
36.80275 0 l
48.23766 0 m
58.06285 0 l
69.49776 0 m
79.32295 0 l
S
5.71744 -21.2601 m
15.54265 -21.2601 l
26.97754 -21.2601 m
36.80275 -21.2601 l
48.23766 -21.2601 m
58.06285 -21.2601 l
69.49776 -21.2601 m
79.32295 -21.2601 l
S
5.71744 -42.5202 m
15.54265 -42.5202 l
26.97754 -42.5202 m
36.80275 -42.5202 l
48.23766 -42.5202 m
58.06285 -42.5202 l
69.49776 -42.5202 m
79.32295 -42.5202 l
S
5.71744 -63.7803 m
15.54265 -63.7803 l
26.97754 -63.7803 m
36.80275 -63.7803 l
48.23766 -63.7803 m
58.06285 -63.7803 l
69.49776 -63.7803 m
79.32295 -63.7803 l
S
5.71744 -85.0404 m
15.54265 -85.0404 l
26.97754 -85.0404 m
36.80275 -85.0404 l
48.23766 -85.0404 m
58.06285 -85.0404 l
69.49776 -85.0404 m
79.32295 -85.0404 l
S
0 -5.71744 m
0 -15.54265 l
0 -26.97754 m
0 -36.80275 l
0 -48.23766 m
0 -58.06285 l
0 -69.49776 m
0 -79.32295 l
S
21.2601 -5.71744 m
21.2601 -15.54265 l
21.2601 -26.97754 m
21.2601 -36.80275 l
21.2601 -48.23766 m
21.2601 -58.06285 l
21.2601 -69.49776 m
21.2601 -79.32295 l
S
42.5202 -5.71744 m
42.5202 -15.54265 l
42.5202 -26.97754 m
42.5202 -36.80275 l
42.5202 -48.23766 m
42.5202 -58.06285 l
42.5202 -69.49776 m
42.5202 -79.32295 l
S
63.7803 -5.71744 m
63.7803 -15.54265 l
63.7803 -26.97754 m
63.7803 -36.80275 l
63.7803 -48.23766 m
63.7803 -58.06285 l
63.7803 -69.49776 m
63.7803 -79.32295 l
S
85.0404 -5.71744 m
85.0404 -15.54265 l
85.0404 -26.97754 m
85.0404 -36.80275 l
85.0404 -48.23766 m
85.0404 -58.06285 l
85.0404 -69.49776 m
85.0404 -79.32295 l
S
Q
Q
Q
showpage
%%PageTrailer
pdfEndPage
%%Trailer
end
%%DocumentSuppliedResources:
%%EOF
