%!PS-Adobe-3.0 EPSF-3.0
%Produced by poppler pdftops version: 0.24.5 (http://poppler.freedesktop.org)
%%Creator: TeX
%%LanguageLevel: 2
%%DocumentSuppliedResources: (atend)
%%BoundingBox: 0 0 186 143
%%HiResBoundingBox: 0 0 185.252 142.732
%%DocumentSuppliedResources: (atend)
%%EndComments
%%BeginProlog
%%BeginResource: procset xpdf 3.00 0
%%Copyright: Copyright 1996-2011 Glyph & Cog, LLC
/xpdf 75 dict def xpdf begin
% PDF special state
/pdfDictSize 15 def
/pdfSetup {
  /setpagedevice where {
    pop 2 dict begin
      /Policies 1 dict dup begin /PageSize 6 def end def
      { /Duplex true def } if
    currentdict end setpagedevice
  } {
    pop
  } ifelse
} def
/pdfSetupPaper {
  2 array astore
  /setpagedevice where {
    pop 2 dict begin
      /PageSize exch def
      /ImagingBBox null def
    currentdict end setpagedevice
  } {
    pop
  } ifelse
} def
/pdfStartPage {
  pdfDictSize dict begin
  /pdfFillCS [] def
  /pdfFillXform {} def
  /pdfStrokeCS [] def
  /pdfStrokeXform {} def
  /pdfFill [0] def
  /pdfStroke [0] def
  /pdfFillOP false def
  /pdfStrokeOP false def
  /pdfLastFill false def
  /pdfLastStroke false def
  /pdfTextMat [1 0 0 1 0 0] def
  /pdfFontSize 0 def
  /pdfCharSpacing 0 def
  /pdfTextRender 0 def
  /pdfPatternCS false def
  /pdfTextRise 0 def
  /pdfWordSpacing 0 def
  /pdfHorizScaling 1 def
  /pdfTextClipPath [] def
} def
/pdfEndPage { end } def
% PDF color state
/cs { /pdfFillXform exch def dup /pdfFillCS exch def
      setcolorspace } def
/CS { /pdfStrokeXform exch def dup /pdfStrokeCS exch def
      setcolorspace } def
/sc { pdfLastFill not { pdfFillCS setcolorspace } if
      dup /pdfFill exch def aload pop pdfFillXform setcolor
     /pdfLastFill true def /pdfLastStroke false def } def
/SC { pdfLastStroke not { pdfStrokeCS setcolorspace } if
      dup /pdfStroke exch def aload pop pdfStrokeXform setcolor
     /pdfLastStroke true def /pdfLastFill false def } def
/op { /pdfFillOP exch def
      pdfLastFill { pdfFillOP setoverprint } if } def
/OP { /pdfStrokeOP exch def
      pdfLastStroke { pdfStrokeOP setoverprint } if } def
/fCol {
  pdfLastFill not {
    pdfFillCS setcolorspace
    pdfFill aload pop pdfFillXform setcolor
    pdfFillOP setoverprint
    /pdfLastFill true def /pdfLastStroke false def
  } if
} def
/sCol {
  pdfLastStroke not {
    pdfStrokeCS setcolorspace
    pdfStroke aload pop pdfStrokeXform setcolor
    pdfStrokeOP setoverprint
    /pdfLastStroke true def /pdfLastFill false def
  } if
} def
% build a font
/pdfMakeFont {
  4 3 roll findfont
  4 2 roll matrix scale makefont
  dup length dict begin
    { 1 index /FID ne { def } { pop pop } ifelse } forall
    /Encoding exch def
    currentdict
  end
  definefont pop
} def
/pdfMakeFont16 {
  exch findfont
  dup length dict begin
    { 1 index /FID ne { def } { pop pop } ifelse } forall
    /WMode exch def
    currentdict
  end
  definefont pop
} def
% graphics state operators
/q { gsave pdfDictSize dict begin } def
/Q {
  end grestore
  /pdfLastFill where {
    pop
    pdfLastFill {
      pdfFillOP setoverprint
    } {
      pdfStrokeOP setoverprint
    } ifelse
  } if
} def
/cm { concat } def
/d { setdash } def
/i { setflat } def
/j { setlinejoin } def
/J { setlinecap } def
/M { setmiterlimit } def
/w { setlinewidth } def
% path segment operators
/m { moveto } def
/l { lineto } def
/c { curveto } def
/re { 4 2 roll moveto 1 index 0 rlineto 0 exch rlineto
      neg 0 rlineto closepath } def
/h { closepath } def
% path painting operators
/S { sCol stroke } def
/Sf { fCol stroke } def
/f { fCol fill } def
/f* { fCol eofill } def
% clipping operators
/W { clip newpath } def
/W* { eoclip newpath } def
/Ws { strokepath clip newpath } def
% text state operators
/Tc { /pdfCharSpacing exch def } def
/Tf { dup /pdfFontSize exch def
      dup pdfHorizScaling mul exch matrix scale
      pdfTextMat matrix concatmatrix dup 4 0 put dup 5 0 put
      exch findfont exch makefont setfont } def
/Tr { /pdfTextRender exch def } def
/Tp { /pdfPatternCS exch def } def
/Ts { /pdfTextRise exch def } def
/Tw { /pdfWordSpacing exch def } def
/Tz { /pdfHorizScaling exch def } def
% text positioning operators
/Td { pdfTextMat transform moveto } def
/Tm { /pdfTextMat exch def } def
% text string operators
/xyshow where {
  pop
  /xyshow2 {
    dup length array
    0 2 2 index length 1 sub {
      2 index 1 index 2 copy get 3 1 roll 1 add get
      pdfTextMat dtransform
      4 2 roll 2 copy 6 5 roll put 1 add 3 1 roll dup 4 2 roll put
    } for
    exch pop
    xyshow
  } def
}{
  /xyshow2 {
    currentfont /FontType get 0 eq {
      0 2 3 index length 1 sub {
        currentpoint 4 index 3 index 2 getinterval show moveto
        2 copy get 2 index 3 2 roll 1 add get
        pdfTextMat dtransform rmoveto
      } for
    } {
      0 1 3 index length 1 sub {
        currentpoint 4 index 3 index 1 getinterval show moveto
        2 copy 2 mul get 2 index 3 2 roll 2 mul 1 add get
        pdfTextMat dtransform rmoveto
      } for
    } ifelse
    pop pop
  } def
} ifelse
/cshow where {
  pop
  /xycp {
    0 3 2 roll
    {
      pop pop currentpoint 3 2 roll
      1 string dup 0 4 3 roll put false charpath moveto
      2 copy get 2 index 2 index 1 add get
      pdfTextMat dtransform rmoveto
      2 add
    } exch cshow
    pop pop
  } def
}{
  /xycp {
    currentfont /FontType get 0 eq {
      0 2 3 index length 1 sub {
        currentpoint 4 index 3 index 2 getinterval false charpath moveto
        2 copy get 2 index 3 2 roll 1 add get
        pdfTextMat dtransform rmoveto
      } for
    } {
      0 1 3 index length 1 sub {
        currentpoint 4 index 3 index 1 getinterval false charpath moveto
        2 copy 2 mul get 2 index 3 2 roll 2 mul 1 add get
        pdfTextMat dtransform rmoveto
      } for
    } ifelse
    pop pop
  } def
} ifelse
/Tj {
  fCol
  0 pdfTextRise pdfTextMat dtransform rmoveto
  currentpoint 4 2 roll
  pdfTextRender 1 and 0 eq {
    2 copy xyshow2
  } if
  pdfTextRender 3 and dup 1 eq exch 2 eq or {
    3 index 3 index moveto
    2 copy
    currentfont /FontType get 3 eq { fCol } { sCol } ifelse
    xycp currentpoint stroke moveto
  } if
  pdfTextRender 4 and 0 ne {
    4 2 roll moveto xycp
    /pdfTextClipPath [ pdfTextClipPath aload pop
      {/moveto cvx}
      {/lineto cvx}
      {/curveto cvx}
      {/closepath cvx}
    pathforall ] def
    currentpoint newpath moveto
  } {
    pop pop pop pop
  } ifelse
  0 pdfTextRise neg pdfTextMat dtransform rmoveto
} def
/TJm { 0.001 mul pdfFontSize mul pdfHorizScaling mul neg 0
       pdfTextMat dtransform rmoveto } def
/TJmV { 0.001 mul pdfFontSize mul neg 0 exch
        pdfTextMat dtransform rmoveto } def
/Tclip { pdfTextClipPath cvx exec clip newpath
         /pdfTextClipPath [] def } def
/Tclip* { pdfTextClipPath cvx exec eoclip newpath
         /pdfTextClipPath [] def } def
% Level 2/3 image operators
/pdfImBuf 100 string def
/pdfImStr {
  2 copy exch length lt {
    2 copy get exch 1 add exch
  } {
    ()
  } ifelse
} def
/skipEOD {
  { currentfile pdfImBuf readline
    not { pop exit } if
    (%-EOD-) eq { exit } if } loop
} def
/pdfIm { image skipEOD } def
/pdfImM { fCol imagemask skipEOD } def
/pr { 2 index 2 index 3 2 roll putinterval 4 add } def
/pdfImClip {
  gsave
  0 2 4 index length 1 sub {
    dup 4 index exch 2 copy
    get 5 index div put
    1 add 3 index exch 2 copy
    get 3 index div put
  } for
  pop pop rectclip
} def
/pdfImClipEnd { grestore } def
% shading operators
/colordelta {
  false 0 1 3 index length 1 sub {
    dup 4 index exch get 3 index 3 2 roll get sub abs 0.004 gt {
      pop true
    } if
  } for
  exch pop exch pop
} def
/funcCol { func n array astore } def
/funcSH {
  dup 0 eq {
    true
  } {
    dup 6 eq {
      false
    } {
      4 index 4 index funcCol dup
      6 index 4 index funcCol dup
      3 1 roll colordelta 3 1 roll
      5 index 5 index funcCol dup
      3 1 roll colordelta 3 1 roll
      6 index 8 index funcCol dup
      3 1 roll colordelta 3 1 roll
      colordelta or or or
    } ifelse
  } ifelse
  {
    1 add
    4 index 3 index add 0.5 mul exch 4 index 3 index add 0.5 mul exch
    6 index 6 index 4 index 4 index 4 index funcSH
    2 index 6 index 6 index 4 index 4 index funcSH
    6 index 2 index 4 index 6 index 4 index funcSH
    5 3 roll 3 2 roll funcSH pop pop
  } {
    pop 3 index 2 index add 0.5 mul 3 index  2 index add 0.5 mul
    funcCol sc
    dup 4 index exch mat transform m
    3 index 3 index mat transform l
    1 index 3 index mat transform l
    mat transform l pop pop h f*
  } ifelse
} def
/axialCol {
  dup 0 lt {
    pop t0
  } {
    dup 1 gt {
      pop t1
    } {
      dt mul t0 add
    } ifelse
  } ifelse
  func n array astore
} def
/axialSH {
  dup 0 eq {
    true
  } {
    dup 8 eq {
      false
    } {
      2 index axialCol 2 index axialCol colordelta
    } ifelse
  } ifelse
  {
    1 add 3 1 roll 2 copy add 0.5 mul
    dup 4 3 roll exch 4 index axialSH
    exch 3 2 roll axialSH
  } {
    pop 2 copy add 0.5 mul
    axialCol sc
    exch dup dx mul x0 add exch dy mul y0 add
    3 2 roll dup dx mul x0 add exch dy mul y0 add
    dx abs dy abs ge {
      2 copy yMin sub dy mul dx div add yMin m
      yMax sub dy mul dx div add yMax l
      2 copy yMax sub dy mul dx div add yMax l
      yMin sub dy mul dx div add yMin l
      h f*
    } {
      exch 2 copy xMin sub dx mul dy div add xMin exch m
      xMax sub dx mul dy div add xMax exch l
      exch 2 copy xMax sub dx mul dy div add xMax exch l
      xMin sub dx mul dy div add xMin exch l
      h f*
    } ifelse
  } ifelse
} def
/radialCol {
  dup t0 lt {
    pop t0
  } {
    dup t1 gt {
      pop t1
    } if
  } ifelse
  func n array astore
} def
/radialSH {
  dup 0 eq {
    true
  } {
    dup 8 eq {
      false
    } {
      2 index dt mul t0 add radialCol
      2 index dt mul t0 add radialCol colordelta
    } ifelse
  } ifelse
  {
    1 add 3 1 roll 2 copy add 0.5 mul
    dup 4 3 roll exch 4 index radialSH
    exch 3 2 roll radialSH
  } {
    pop 2 copy add 0.5 mul dt mul t0 add
    radialCol sc
    encl {
      exch dup dx mul x0 add exch dup dy mul y0 add exch dr mul r0 add
      0 360 arc h
      dup dx mul x0 add exch dup dy mul y0 add exch dr mul r0 add
      360 0 arcn h f
    } {
      2 copy
      dup dx mul x0 add exch dup dy mul y0 add exch dr mul r0 add
      a1 a2 arcn
      dup dx mul x0 add exch dup dy mul y0 add exch dr mul r0 add
      a2 a1 arcn h
      dup dx mul x0 add exch dup dy mul y0 add exch dr mul r0 add
      a1 a2 arc
      dup dx mul x0 add exch dup dy mul y0 add exch dr mul r0 add
      a2 a1 arc h f
    } ifelse
  } ifelse
} def
end
%%EndResource
%%EndProlog
%%BeginSetup
xpdf begin
%%EndSetup
pdfStartPage
[] 0 d
1 i
0 j
0 J
10 M
1 w
/DeviceGray {} cs
[0] sc
/DeviceGray {} CS
[0] SC
false op
false OP
{} settransfer
0 0 185.252 142.732 re
W
q
[1 0 0 1 64.279 135.146] cm
q
/DeviceGray {} CS
[0] SC
/DeviceGray {} cs
[0] sc
0.3985 w
q
0.3985 w
q
/DeviceRGB {} cs
[1 0 0] sc
q
/DeviceRGB {} cs
[1 0 0] sc
7.08669 0 m
7.08669 3.91391 3.91391 7.08669 0 7.08669 c
-3.91391 7.08669 -7.08669 3.91391 -7.08669 0 c
-7.08669 -3.91391 -3.91391 -7.08669 0 -7.08669 c
3.91391 -7.08669 7.08669 -3.91391 7.08669 0 c
h
f
Q
q
[1 0 0 1 0 0] cm
q
/DeviceGray {} CS
[0] SC
/DeviceGray {} cs
[0] sc
Q
Q
Q
q
/DeviceRGB {} cs
[0 1 0] sc
q
/DeviceRGB {} cs
[0 1 0] sc
-49.60692 -42.5202 m
-49.60692 -38.60628 -52.7797 -35.4335 -56.69362 -35.4335 c
-60.60753 -35.4335 -63.7803 -38.60628 -63.7803 -42.5202 c
-63.7803 -46.43411 -60.60753 -49.60689 -56.69362 -49.60689 c
-52.7797 -49.60689 -49.60692 -46.43411 -49.60692 -42.5202 c
h
f
Q
q
[1 0 0 1 -56.692 -42.52] cm
[1 0 0 1 0 0] cm
q
/DeviceGray {} CS
[0] SC
/DeviceGray {} cs
[0] sc
Q
[1 0 0 1 56.692 42.52] cm
Q
Q
q
/DeviceRGB {} cs
[1 0 0] sc
q
/DeviceRGB {} cs
[1 0 0] sc
63.7803 -28.34679 m
63.7803 -24.43288 60.60753 -21.2601 56.69362 -21.2601 c
52.7797 -21.2601 49.60692 -24.43288 49.60692 -28.34679 c
49.60692 -32.2607 52.7797 -35.43347 56.69362 -35.43347 c
60.60753 -35.43347 63.7803 -32.2607 63.7803 -28.34679 c
h
f
Q
q
[1 0 0 1 56.693 -28.347] cm
[1 0 0 1 0 0] cm
q
/DeviceGray {} CS
[0] SC
/DeviceGray {} cs
[0] sc
Q
[1 0 0 1 -56.693 28.347] cm
Q
Q
q
/DeviceRGB {} cs
[0 1 0] sc
q
/DeviceRGB {} cs
[0 1 0] sc
-49.60692 -70.86699 m
-49.60692 -66.95308 -52.7797 -63.7803 -56.69362 -63.7803 c
-60.60753 -63.7803 -63.7803 -66.95308 -63.7803 -70.86699 c
-63.7803 -74.78091 -60.60753 -77.95369 -56.69362 -77.95369 c
-52.7797 -77.95369 -49.60692 -74.78091 -49.60692 -70.86699 c
h
f
Q
q
[1 0 0 1 -56.692 -70.866] cm
[1 0 0 1 0 0] cm
q
/DeviceGray {} CS
[0] SC
/DeviceGray {} cs
[0] sc
Q
[1 0 0 1 56.692 70.866] cm
Q
Q
q
/DeviceRGB {} cs
[1 0 0] sc
q
/DeviceRGB {} cs
[1 0 0] sc
21.26007 -56.69362 m
21.26007 -52.7797 18.0873 -49.60692 14.17337 -49.60692 c
10.25946 -49.60692 7.08669 -52.7797 7.08669 -56.69362 c
7.08669 -60.60753 10.25946 -63.7803 14.17337 -63.7803 c
18.0873 -63.7803 21.26007 -60.60753 21.26007 -56.69362 c
h
f
Q
q
[1 0 0 1 14.174 -56.693] cm
[1 0 0 1 0 0] cm
q
/DeviceGray {} CS
[0] SC
/DeviceGray {} cs
[0] sc
Q
[1 0 0 1 -14.174 56.693] cm
Q
Q
q
/DeviceRGB {} cs
[1 0 0] sc
q
/DeviceRGB {} cs
[1 0 0] sc
63.7803 -70.86699 m
63.7803 -66.95308 60.60753 -63.7803 56.69362 -63.7803 c
52.7797 -63.7803 49.60692 -66.95308 49.60692 -70.86699 c
49.60692 -74.78091 52.7797 -77.95369 56.69362 -77.95369 c
60.60753 -77.95369 63.7803 -74.78091 63.7803 -70.86699 c
h
f
Q
q
[1 0 0 1 56.693 -70.866] cm
[1 0 0 1 0 0] cm
q
/DeviceGray {} CS
[0] SC
/DeviceGray {} cs
[0] sc
Q
[1 0 0 1 -56.693 70.866] cm
Q
Q
q
/DeviceRGB {} cs
[1 0 0] sc
q
/DeviceRGB {} cs
[1 0 0] sc
92.12709 -56.69362 m
92.12709 -52.7797 88.95433 -49.60692 85.0404 -49.60692 c
81.1265 -49.60692 77.95372 -52.7797 77.95372 -56.69362 c
77.95372 -60.60753 81.1265 -63.7803 85.0404 -63.7803 c
88.95433 -63.7803 92.12709 -60.60753 92.12709 -56.69362 c
h
f
Q
q
[1 0 0 1 85.04 -56.693] cm
[1 0 0 1 0 0] cm
q
/DeviceGray {} CS
[0] SC
/DeviceGray {} cs
[0] sc
Q
[1 0 0 1 -85.04 56.693] cm
Q
Q
q
/DeviceRGB {} cs
[0 1 0] sc
q
/DeviceRGB {} cs
[0 1 0] sc
120.47392 -70.86699 m
120.47392 -66.95308 117.30115 -63.7803 113.38724 -63.7803 c
109.47331 -63.7803 106.30054 -66.95308 106.30054 -70.86699 c
106.30054 -74.78091 109.47331 -77.95369 113.38724 -77.95369 c
117.30115 -77.95369 120.47392 -74.78091 120.47392 -70.86699 c
h
f
Q
q
[1 0 0 1 113.386 -70.866] cm
[1 0 0 1 0 0] cm
q
/DeviceGray {} CS
[0] SC
/DeviceGray {} cs
[0] sc
Q
[1 0 0 1 -113.386 70.866] cm
Q
Q
q
/DeviceRGB {} cs
[0 0 1] sc
q
/DeviceRGB {} cs
[0 0 1] sc
120.47392 -99.21382 m
120.47392 -95.2999 117.30115 -92.12712 113.38724 -92.12712 c
109.47331 -92.12712 106.30054 -95.2999 106.30054 -99.21382 c
106.30054 -103.12773 109.47331 -106.3005 113.38724 -106.3005 c
117.30115 -106.3005 120.47392 -103.12773 120.47392 -99.21382 c
h
f
Q
q
[1 0 0 1 113.386 -99.213] cm
[1 0 0 1 0 0] cm
q
/DeviceGray {} CS
[0] SC
/DeviceGray {} cs
[0] sc
Q
[1 0 0 1 -113.386 99.213] cm
Q
Q
q
/DeviceRGB {} cs
[1 0 0] sc
q
/DeviceRGB {} cs
[1 0 0] sc
7.08669 -99.21382 m
7.08669 -95.2999 3.91391 -92.12712 0 -92.12712 c
-3.91391 -92.12712 -7.08669 -95.2999 -7.08669 -99.21382 c
-7.08669 -103.12773 -3.91391 -106.3005 0 -106.3005 c
3.91391 -106.3005 7.08669 -103.12773 7.08669 -99.21382 c
h
f
Q
q
[1 0 0 1 0 -99.213] cm
[1 0 0 1 0 0] cm
q
/DeviceGray {} CS
[0] SC
/DeviceGray {} cs
[0] sc
Q
[1 0 0 1 0 99.213] cm
Q
Q
q
/DeviceRGB {} cs
[1 0 0] sc
q
/DeviceRGB {} cs
[1 0 0] sc
77.95369 -99.21382 m
77.95369 -95.2999 74.78091 -92.12712 70.86699 -92.12712 c
66.95308 -92.12712 63.7803 -95.2999 63.7803 -99.21382 c
63.7803 -103.12773 66.95308 -106.3005 70.86699 -106.3005 c
74.78091 -106.3005 77.95369 -103.12773 77.95369 -99.21382 c
h
f
Q
q
[1 0 0 1 70.867 -99.213] cm
[1 0 0 1 0 0] cm
q
/DeviceGray {} CS
[0] SC
/DeviceGray {} cs
[0] sc
Q
[1 0 0 1 -70.867 99.213] cm
Q
Q
q
/DeviceRGB {} cs
[0 1 0] sc
q
/DeviceRGB {} cs
[0 1 0] sc
92.12709 -127.56061 m
92.12709 -123.6467 88.95433 -120.47392 85.0404 -120.47392 c
81.1265 -120.47392 77.95372 -123.6467 77.95372 -127.56061 c
77.95372 -131.47453 81.1265 -134.64731 85.0404 -134.64731 c
88.95433 -134.64731 92.12709 -131.47453 92.12709 -127.56061 c
h
f
Q
q
[1 0 0 1 85.04 -127.559] cm
[1 0 0 1 0 0] cm
q
/DeviceGray {} CS
[0] SC
/DeviceGray {} cs
[0] sc
Q
[1 0 0 1 -85.04 127.559] cm
Q
Q
q
/DeviceRGB {} cs
[1 0 0] sc
q
/DeviceRGB {} cs
[1 0 0] sc
49.60689 -127.56061 m
49.60689 -123.6467 46.43411 -120.47392 42.5202 -120.47392 c
38.60628 -120.47392 35.4335 -123.6467 35.4335 -127.56061 c
35.4335 -131.47453 38.60628 -134.64731 42.5202 -134.64731 c
46.43411 -134.64731 49.60689 -131.47453 49.60689 -127.56061 c
h
f
Q
q
[1 0 0 1 42.52 -127.559] cm
[1 0 0 1 0 0] cm
q
/DeviceGray {} CS
[0] SC
/DeviceGray {} cs
[0] sc
Q
[1 0 0 1 -42.52 127.559] cm
Q
Q
-5.82877 -4.37181 m
-50.86484 -38.14859 l
-49.5492 -43.949 m
7.01549 -55.26222 l
20.25429 -52.63931 m
50.6127 -32.40076 l
50.15086 -25.07535 m
6.51671 -3.2583 l
S
-56.69362 -49.80614 m
-56.69362 -63.58105 l
-49.5492 -69.43819 m
7.01549 -58.12497 l
7.02896 -55.2648 m
-49.53574 -43.95155 l
S
-49.5492 -69.43819 m
7.01549 -58.12497 l
11.86705 -63.61243 m
2.3062 -92.29497 l
-6.54271 -95.94238 m
-50.1769 -74.12529 l
S
q
/DeviceRGB {} cs
[0 0 1] sc
/DeviceRGB {} CS
[0 0 1] SC
4.98138 w
6.54271 -95.94238 m
50.1769 -74.12529 l
49.77464 -68.56067 m
21.09232 -58.99982 l
11.86705 -63.61243 m
2.3062 -92.29497 l
S
/DeviceGray {} cs
[0] sc
/DeviceGray {} CS
[0] SC
Q
q
/DeviceRGB {} cs
[0 0 1] sc
/DeviceRGB {} CS
[0 0 1] SC
4.98138 w
21.09232 -58.99991 m
49.77464 -68.56079 l
63.23633 -67.59557 m
78.52368 -59.95192 l
79.88846 -51.54166 m
61.84566 -33.4987 l
50.6127 -32.4011 m
20.25429 -52.63963 l
S
/DeviceGray {} cs
[0] sc
/DeviceGray {} CS
[0] SC
Q
q
/DeviceRGB {} cs
[1 0 0] sc
/DeviceRGB {} CS
[1 0 0] SC
2.49069 w
6.54271 -95.94238 m
50.1769 -74.12529 l
49.77464 -68.56067 m
21.09232 -58.99982 l
11.86705 -63.61243 m
2.3062 -92.29497 l
S
/DeviceGray {} cs
[0] sc
/DeviceGray {} CS
[0] SC
Q
q
/DeviceRGB {} cs
[1 0 0] sc
/DeviceRGB {} CS
[1 0 0] SC
2.49069 w
6.0809 -103.26813 m
36.43929 -123.50664 l
47.67212 -122.40866 m
65.71495 -104.36574 l
67.59557 -92.67107 m
59.95192 -77.38371 l
50.15086 -74.1384 m
6.51671 -95.95552 l
S
/DeviceGray {} cs
[0] sc
/DeviceGray {} CS
[0] SC
Q
49.80614 -127.56061 m
77.75447 -127.56061 l
81.76897 -121.01787 m
74.12529 -105.73055 l
S
90.19232 -122.40866 m
108.23528 -104.36586 l
106.10129 -99.21382 m
78.15294 -99.21382 l
74.1384 -105.75653 m
81.7821 -121.04388 l
S
78.15294 -99.21382 m
106.10129 -99.21382 l
113.38724 -91.92787 m
113.38724 -78.15294 l
106.10129 -70.86699 m
63.97955 -70.86699 l
S
91.58313 -59.96501 m
106.87051 -67.60869 l
106.10129 -70.86699 m
63.97955 -70.86699 l
S
Q
Q
Q
showpage
%%PageTrailer
pdfEndPage
%%Trailer
end
%%DocumentSuppliedResources:
%%EOF
