%!PS-Adobe-3.0 EPSF-3.0
%Produced by poppler pdftops version: 0.24.5 (http://poppler.freedesktop.org)
%%Creator: TeX
%%LanguageLevel: 2
%%DocumentSuppliedResources: (atend)
%%BoundingBox: 0 0 271 157
%%HiResBoundingBox: 0 0 270.291 156.905
%%DocumentSuppliedResources: (atend)
%%EndComments
%%BeginProlog
%%BeginResource: procset xpdf 3.00 0
%%Copyright: Copyright 1996-2011 Glyph & Cog, LLC
/xpdf 75 dict def xpdf begin
% PDF special state
/pdfDictSize 15 def
/pdfSetup {
  /setpagedevice where {
    pop 2 dict begin
      /Policies 1 dict dup begin /PageSize 6 def end def
      { /Duplex true def } if
    currentdict end setpagedevice
  } {
    pop
  } ifelse
} def
/pdfSetupPaper {
  2 array astore
  /setpagedevice where {
    pop 2 dict begin
      /PageSize exch def
      /ImagingBBox null def
    currentdict end setpagedevice
  } {
    pop
  } ifelse
} def
/pdfStartPage {
  pdfDictSize dict begin
  /pdfFillCS [] def
  /pdfFillXform {} def
  /pdfStrokeCS [] def
  /pdfStrokeXform {} def
  /pdfFill [0] def
  /pdfStroke [0] def
  /pdfFillOP false def
  /pdfStrokeOP false def
  /pdfLastFill false def
  /pdfLastStroke false def
  /pdfTextMat [1 0 0 1 0 0] def
  /pdfFontSize 0 def
  /pdfCharSpacing 0 def
  /pdfTextRender 0 def
  /pdfPatternCS false def
  /pdfTextRise 0 def
  /pdfWordSpacing 0 def
  /pdfHorizScaling 1 def
  /pdfTextClipPath [] def
} def
/pdfEndPage { end } def
% PDF color state
/cs { /pdfFillXform exch def dup /pdfFillCS exch def
      setcolorspace } def
/CS { /pdfStrokeXform exch def dup /pdfStrokeCS exch def
      setcolorspace } def
/sc { pdfLastFill not { pdfFillCS setcolorspace } if
      dup /pdfFill exch def aload pop pdfFillXform setcolor
     /pdfLastFill true def /pdfLastStroke false def } def
/SC { pdfLastStroke not { pdfStrokeCS setcolorspace } if
      dup /pdfStroke exch def aload pop pdfStrokeXform setcolor
     /pdfLastStroke true def /pdfLastFill false def } def
/op { /pdfFillOP exch def
      pdfLastFill { pdfFillOP setoverprint } if } def
/OP { /pdfStrokeOP exch def
      pdfLastStroke { pdfStrokeOP setoverprint } if } def
/fCol {
  pdfLastFill not {
    pdfFillCS setcolorspace
    pdfFill aload pop pdfFillXform setcolor
    pdfFillOP setoverprint
    /pdfLastFill true def /pdfLastStroke false def
  } if
} def
/sCol {
  pdfLastStroke not {
    pdfStrokeCS setcolorspace
    pdfStroke aload pop pdfStrokeXform setcolor
    pdfStrokeOP setoverprint
    /pdfLastStroke true def /pdfLastFill false def
  } if
} def
% build a font
/pdfMakeFont {
  4 3 roll findfont
  4 2 roll matrix scale makefont
  dup length dict begin
    { 1 index /FID ne { def } { pop pop } ifelse } forall
    /Encoding exch def
    currentdict
  end
  definefont pop
} def
/pdfMakeFont16 {
  exch findfont
  dup length dict begin
    { 1 index /FID ne { def } { pop pop } ifelse } forall
    /WMode exch def
    currentdict
  end
  definefont pop
} def
% graphics state operators
/q { gsave pdfDictSize dict begin } def
/Q {
  end grestore
  /pdfLastFill where {
    pop
    pdfLastFill {
      pdfFillOP setoverprint
    } {
      pdfStrokeOP setoverprint
    } ifelse
  } if
} def
/cm { concat } def
/d { setdash } def
/i { setflat } def
/j { setlinejoin } def
/J { setlinecap } def
/M { setmiterlimit } def
/w { setlinewidth } def
% path segment operators
/m { moveto } def
/l { lineto } def
/c { curveto } def
/re { 4 2 roll moveto 1 index 0 rlineto 0 exch rlineto
      neg 0 rlineto closepath } def
/h { closepath } def
% path painting operators
/S { sCol stroke } def
/Sf { fCol stroke } def
/f { fCol fill } def
/f* { fCol eofill } def
% clipping operators
/W { clip newpath } def
/W* { eoclip newpath } def
/Ws { strokepath clip newpath } def
% text state operators
/Tc { /pdfCharSpacing exch def } def
/Tf { dup /pdfFontSize exch def
      dup pdfHorizScaling mul exch matrix scale
      pdfTextMat matrix concatmatrix dup 4 0 put dup 5 0 put
      exch findfont exch makefont setfont } def
/Tr { /pdfTextRender exch def } def
/Tp { /pdfPatternCS exch def } def
/Ts { /pdfTextRise exch def } def
/Tw { /pdfWordSpacing exch def } def
/Tz { /pdfHorizScaling exch def } def
% text positioning operators
/Td { pdfTextMat transform moveto } def
/Tm { /pdfTextMat exch def } def
% text string operators
/xyshow where {
  pop
  /xyshow2 {
    dup length array
    0 2 2 index length 1 sub {
      2 index 1 index 2 copy get 3 1 roll 1 add get
      pdfTextMat dtransform
      4 2 roll 2 copy 6 5 roll put 1 add 3 1 roll dup 4 2 roll put
    } for
    exch pop
    xyshow
  } def
}{
  /xyshow2 {
    currentfont /FontType get 0 eq {
      0 2 3 index length 1 sub {
        currentpoint 4 index 3 index 2 getinterval show moveto
        2 copy get 2 index 3 2 roll 1 add get
        pdfTextMat dtransform rmoveto
      } for
    } {
      0 1 3 index length 1 sub {
        currentpoint 4 index 3 index 1 getinterval show moveto
        2 copy 2 mul get 2 index 3 2 roll 2 mul 1 add get
        pdfTextMat dtransform rmoveto
      } for
    } ifelse
    pop pop
  } def
} ifelse
/cshow where {
  pop
  /xycp {
    0 3 2 roll
    {
      pop pop currentpoint 3 2 roll
      1 string dup 0 4 3 roll put false charpath moveto
      2 copy get 2 index 2 index 1 add get
      pdfTextMat dtransform rmoveto
      2 add
    } exch cshow
    pop pop
  } def
}{
  /xycp {
    currentfont /FontType get 0 eq {
      0 2 3 index length 1 sub {
        currentpoint 4 index 3 index 2 getinterval false charpath moveto
        2 copy get 2 index 3 2 roll 1 add get
        pdfTextMat dtransform rmoveto
      } for
    } {
      0 1 3 index length 1 sub {
        currentpoint 4 index 3 index 1 getinterval false charpath moveto
        2 copy 2 mul get 2 index 3 2 roll 2 mul 1 add get
        pdfTextMat dtransform rmoveto
      } for
    } ifelse
    pop pop
  } def
} ifelse
/Tj {
  fCol
  0 pdfTextRise pdfTextMat dtransform rmoveto
  currentpoint 4 2 roll
  pdfTextRender 1 and 0 eq {
    2 copy xyshow2
  } if
  pdfTextRender 3 and dup 1 eq exch 2 eq or {
    3 index 3 index moveto
    2 copy
    currentfont /FontType get 3 eq { fCol } { sCol } ifelse
    xycp currentpoint stroke moveto
  } if
  pdfTextRender 4 and 0 ne {
    4 2 roll moveto xycp
    /pdfTextClipPath [ pdfTextClipPath aload pop
      {/moveto cvx}
      {/lineto cvx}
      {/curveto cvx}
      {/closepath cvx}
    pathforall ] def
    currentpoint newpath moveto
  } {
    pop pop pop pop
  } ifelse
  0 pdfTextRise neg pdfTextMat dtransform rmoveto
} def
/TJm { 0.001 mul pdfFontSize mul pdfHorizScaling mul neg 0
       pdfTextMat dtransform rmoveto } def
/TJmV { 0.001 mul pdfFontSize mul neg 0 exch
        pdfTextMat dtransform rmoveto } def
/Tclip { pdfTextClipPath cvx exec clip newpath
         /pdfTextClipPath [] def } def
/Tclip* { pdfTextClipPath cvx exec eoclip newpath
         /pdfTextClipPath [] def } def
% Level 2/3 image operators
/pdfImBuf 100 string def
/pdfImStr {
  2 copy exch length lt {
    2 copy get exch 1 add exch
  } {
    ()
  } ifelse
} def
/skipEOD {
  { currentfile pdfImBuf readline
    not { pop exit } if
    (%-EOD-) eq { exit } if } loop
} def
/pdfIm { image skipEOD } def
/pdfImM { fCol imagemask skipEOD } def
/pr { 2 index 2 index 3 2 roll putinterval 4 add } def
/pdfImClip {
  gsave
  0 2 4 index length 1 sub {
    dup 4 index exch 2 copy
    get 5 index div put
    1 add 3 index exch 2 copy
    get 3 index div put
  } for
  pop pop rectclip
} def
/pdfImClipEnd { grestore } def
% shading operators
/colordelta {
  false 0 1 3 index length 1 sub {
    dup 4 index exch get 3 index 3 2 roll get sub abs 0.004 gt {
      pop true
    } if
  } for
  exch pop exch pop
} def
/funcCol { func n array astore } def
/funcSH {
  dup 0 eq {
    true
  } {
    dup 6 eq {
      false
    } {
      4 index 4 index funcCol dup
      6 index 4 index funcCol dup
      3 1 roll colordelta 3 1 roll
      5 index 5 index funcCol dup
      3 1 roll colordelta 3 1 roll
      6 index 8 index funcCol dup
      3 1 roll colordelta 3 1 roll
      colordelta or or or
    } ifelse
  } ifelse
  {
    1 add
    4 index 3 index add 0.5 mul exch 4 index 3 index add 0.5 mul exch
    6 index 6 index 4 index 4 index 4 index funcSH
    2 index 6 index 6 index 4 index 4 index funcSH
    6 index 2 index 4 index 6 index 4 index funcSH
    5 3 roll 3 2 roll funcSH pop pop
  } {
    pop 3 index 2 index add 0.5 mul 3 index  2 index add 0.5 mul
    funcCol sc
    dup 4 index exch mat transform m
    3 index 3 index mat transform l
    1 index 3 index mat transform l
    mat transform l pop pop h f*
  } ifelse
} def
/axialCol {
  dup 0 lt {
    pop t0
  } {
    dup 1 gt {
      pop t1
    } {
      dt mul t0 add
    } ifelse
  } ifelse
  func n array astore
} def
/axialSH {
  dup 0 eq {
    true
  } {
    dup 8 eq {
      false
    } {
      2 index axialCol 2 index axialCol colordelta
    } ifelse
  } ifelse
  {
    1 add 3 1 roll 2 copy add 0.5 mul
    dup 4 3 roll exch 4 index axialSH
    exch 3 2 roll axialSH
  } {
    pop 2 copy add 0.5 mul
    axialCol sc
    exch dup dx mul x0 add exch dy mul y0 add
    3 2 roll dup dx mul x0 add exch dy mul y0 add
    dx abs dy abs ge {
      2 copy yMin sub dy mul dx div add yMin m
      yMax sub dy mul dx div add yMax l
      2 copy yMax sub dy mul dx div add yMax l
      yMin sub dy mul dx div add yMin l
      h f*
    } {
      exch 2 copy xMin sub dx mul dy div add xMin exch m
      xMax sub dx mul dy div add xMax exch l
      exch 2 copy xMax sub dx mul dy div add xMax exch l
      xMin sub dx mul dy div add xMin exch l
      h f*
    } ifelse
  } ifelse
} def
/radialCol {
  dup t0 lt {
    pop t0
  } {
    dup t1 gt {
      pop t1
    } if
  } ifelse
  func n array astore
} def
/radialSH {
  dup 0 eq {
    true
  } {
    dup 8 eq {
      false
    } {
      2 index dt mul t0 add radialCol
      2 index dt mul t0 add radialCol colordelta
    } ifelse
  } ifelse
  {
    1 add 3 1 roll 2 copy add 0.5 mul
    dup 4 3 roll exch 4 index radialSH
    exch 3 2 roll radialSH
  } {
    pop 2 copy add 0.5 mul dt mul t0 add
    radialCol sc
    encl {
      exch dup dx mul x0 add exch dup dy mul y0 add exch dr mul r0 add
      0 360 arc h
      dup dx mul x0 add exch dup dy mul y0 add exch dr mul r0 add
      360 0 arcn h f
    } {
      2 copy
      dup dx mul x0 add exch dup dy mul y0 add exch dr mul r0 add
      a1 a2 arcn
      dup dx mul x0 add exch dup dy mul y0 add exch dr mul r0 add
      a2 a1 arcn h
      dup dx mul x0 add exch dup dy mul y0 add exch dr mul r0 add
      a1 a2 arc
      dup dx mul x0 add exch dup dy mul y0 add exch dr mul r0 add
      a2 a1 arc h f
    } ifelse
  } ifelse
} def
end
%%EndResource
%%EndProlog
%%BeginSetup
xpdf begin
%%EndSetup
pdfStartPage
[] 0 d
1 i
0 j
0 J
10 M
1 w
/DeviceGray {} cs
[0] sc
/DeviceGray {} CS
[0] SC
false op
false OP
{} settransfer
0 0 270.291 156.905 re
W
q
[1 0 0 1 120.972 149.319] cm
q
/DeviceGray {} CS
[0] SC
/DeviceGray {} cs
[0] sc
0.3985 w
q
0.79701 w
q
/DeviceRGB {} cs
[0 1 0] sc
q
/DeviceRGB {} cs
[0 1 0] sc
7.08669 0 m
7.08669 3.91391 3.91391 7.08669 0 7.08669 c
-3.91391 7.08669 -7.08669 3.91391 -7.08669 0 c
-7.08669 -3.91391 -3.91391 -7.08669 0 -7.08669 c
3.91391 -7.08669 7.08669 -3.91391 7.08669 0 c
h
f
Q
q
[1 0 0 1 0 0] cm
q
/DeviceGray {} CS
[0] SC
/DeviceGray {} cs
[0] sc
Q
Q
Q
q
/DeviceRGB {} cs
[0 1 0] sc
q
/DeviceRGB {} cs
[0 1 0] sc
-49.60692 -28.34679 m
-49.60692 -24.43288 -52.7797 -21.2601 -56.69362 -21.2601 c
-60.60753 -21.2601 -63.7803 -24.43288 -63.7803 -28.34679 c
-63.7803 -32.2607 -60.60753 -35.43347 -56.69362 -35.43347 c
-52.7797 -35.43347 -49.60692 -32.2607 -49.60692 -28.34679 c
h
f
Q
q
[1 0 0 1 -56.693 -28.347] cm
[1 0 0 1 0 0] cm
q
/DeviceGray {} CS
[0] SC
/DeviceGray {} cs
[0] sc
Q
[1 0 0 1 56.693 28.347] cm
Q
Q
q
/DeviceRGB {} cs
[1 0 0] sc
q
/DeviceRGB {} cs
[1 0 0] sc
-106.30054 -85.0404 m
-106.30054 -81.1265 -109.47331 -77.95372 -113.38724 -77.95372 c
-117.30115 -77.95372 -120.47392 -81.1265 -120.47392 -85.0404 c
-120.47392 -88.95433 -117.30115 -92.12709 -113.38724 -92.12709 c
-109.47331 -92.12709 -106.30054 -88.95433 -106.30054 -85.0404 c
h
f
Q
q
[1 0 0 1 -113.385 -85.04] cm
[1 0 0 1 0 0] cm
q
/DeviceGray {} CS
[0] SC
/DeviceGray {} cs
[0] sc
Q
[1 0 0 1 113.385 85.04] cm
Q
Q
q
/DeviceRGB {} cs
[1 0 0] sc
q
/DeviceRGB {} cs
[1 0 0] sc
-7.08669 -85.0404 m
-7.08669 -81.1265 -10.25946 -77.95372 -14.17337 -77.95372 c
-18.0873 -77.95372 -21.26007 -81.1265 -21.26007 -85.0404 c
-21.26007 -88.95433 -18.0873 -92.12709 -14.17337 -92.12709 c
-10.25946 -92.12709 -7.08669 -88.95433 -7.08669 -85.0404 c
h
f
Q
q
[1 0 0 1 -14.173 -85.04] cm
[1 0 0 1 0 0] cm
q
/DeviceGray {} CS
[0] SC
/DeviceGray {} cs
[0] sc
Q
[1 0 0 1 14.173 85.04] cm
Q
Q
q
/DeviceRGB {} cs
[1 0 0] sc
q
/DeviceRGB {} cs
[1 0 0] sc
-21.2601 -127.56061 m
-21.2601 -123.6467 -24.43288 -120.47392 -28.34679 -120.47392 c
-32.2607 -120.47392 -35.43347 -123.6467 -35.43347 -127.56061 c
-35.43347 -131.47453 -32.2607 -134.64731 -28.34679 -134.64731 c
-24.43288 -134.64731 -21.2601 -131.47453 -21.2601 -127.56061 c
h
f
Q
q
[1 0 0 1 -28.346 -127.559] cm
[1 0 0 1 0 0] cm
q
/DeviceGray {} CS
[0] SC
/DeviceGray {} cs
[0] sc
Q
[1 0 0 1 28.346 127.559] cm
Q
Q
q
/DeviceRGB {} cs
[0 0 1] sc
q
/DeviceRGB {} cs
[0 0 1] sc
120.47392 0 m
120.47392 3.91391 117.30115 7.08669 113.38724 7.08669 c
109.47331 7.08669 106.30054 3.91391 106.30054 0 c
106.30054 -3.91391 109.47331 -7.08669 113.38724 -7.08669 c
117.30115 -7.08669 120.47392 -3.91391 120.47392 0 c
h
f
Q
q
[1 0 0 1 113.386 0] cm
[1 0 0 1 0 0] cm
q
/DeviceGray {} CS
[0] SC
/DeviceGray {} cs
[0] sc
Q
[1 0 0 1 -113.386 0] cm
Q
Q
q
/DeviceRGB {} cs
[1 0 0] sc
q
/DeviceRGB {} cs
[1 0 0] sc
63.7803 -70.86699 m
63.7803 -66.95308 60.60753 -63.7803 56.69362 -63.7803 c
52.7797 -63.7803 49.60692 -66.95308 49.60692 -70.86699 c
49.60692 -74.78091 52.7797 -77.95369 56.69362 -77.95369 c
60.60753 -77.95369 63.7803 -74.78091 63.7803 -70.86699 c
h
f
Q
q
[1 0 0 1 56.693 -70.866] cm
[1 0 0 1 0 0] cm
q
/DeviceGray {} CS
[0] SC
/DeviceGray {} cs
[0] sc
Q
[1 0 0 1 -56.693 70.866] cm
Q
Q
q
/DeviceRGB {} cs
[1 0 0] sc
q
/DeviceRGB {} cs
[1 0 0] sc
77.95369 -99.21382 m
77.95369 -95.2999 74.78091 -92.12712 70.86699 -92.12712 c
66.95308 -92.12712 63.7803 -95.2999 63.7803 -99.21382 c
63.7803 -103.12773 66.95308 -106.3005 70.86699 -106.3005 c
74.78091 -106.3005 77.95369 -103.12773 77.95369 -99.21382 c
h
f
Q
q
[1 0 0 1 70.866 -99.213] cm
[1 0 0 1 0 0] cm
q
/DeviceGray {} CS
[0] SC
/DeviceGray {} cs
[0] sc
Q
[1 0 0 1 -70.866 99.213] cm
Q
Q
q
/DeviceRGB {} cs
[1 0 0] sc
q
/DeviceRGB {} cs
[1 0 0] sc
49.60689 -141.73402 m
49.60689 -137.82011 46.43411 -134.64734 42.5202 -134.64734 c
38.60628 -134.64734 35.4335 -137.82011 35.4335 -141.73402 c
35.4335 -145.64795 38.60628 -148.82072 42.5202 -148.82072 c
46.43411 -148.82072 49.60689 -145.64795 49.60689 -141.73402 c
h
f
Q
q
[1 0 0 1 42.52 -141.732] cm
[1 0 0 1 0 0] cm
q
/DeviceGray {} CS
[0] SC
/DeviceGray {} cs
[0] sc
Q
[1 0 0 1 -42.52 141.732] cm
Q
Q
q
/DeviceRGB {} cs
[0 1 0] sc
q
/DeviceRGB {} cs
[0 1 0] sc
148.82072 -85.0404 m
148.82072 -81.1265 145.64795 -77.95372 141.73402 -77.95372 c
137.82011 -77.95372 134.64734 -81.1265 134.64734 -85.0404 c
134.64734 -88.95433 137.82011 -92.12709 141.73402 -92.12709 c
145.64795 -92.12709 148.82072 -88.95433 148.82072 -85.0404 c
h
f
Q
q
[1 0 0 1 141.732 -85.039] cm
[1 0 0 1 0 0] cm
q
/DeviceGray {} CS
[0] SC
/DeviceGray {} cs
[0] sc
Q
[1 0 0 1 -141.732 85.039] cm
Q
Q
q
/DeviceRGB {} cs
[1 0 0] sc
q
/DeviceRGB {} cs
[1 0 0] sc
148.82072 -127.56061 m
148.82072 -123.6467 145.64795 -120.47392 141.73402 -120.47392 c
137.82011 -120.47392 134.64734 -123.6467 134.64734 -127.56061 c
134.64734 -131.47453 137.82011 -134.64731 141.73402 -134.64731 c
145.64795 -134.64731 148.82072 -131.47453 148.82072 -127.56061 c
h
f
Q
q
[1 0 0 1 141.732 -127.559] cm
[1 0 0 1 0 0] cm
q
/DeviceGray {} CS
[0] SC
/DeviceGray {} cs
[0] sc
Q
[1 0 0 1 -141.732 127.559] cm
Q
Q
q
/DeviceRGB {} cs
[1 0 0] sc
q
/DeviceRGB {} cs
[1 0 0] sc
106.3005 -141.73402 m
106.3005 -137.82011 103.12773 -134.64734 99.21382 -134.64734 c
95.2999 -134.64734 92.12712 -137.82011 92.12712 -141.73402 c
92.12712 -145.64795 95.2999 -148.82072 99.21382 -148.82072 c
103.12773 -148.82072 106.3005 -145.64795 106.3005 -141.73402 c
h
f
Q
q
[1 0 0 1 99.213 -141.732] cm
[1 0 0 1 0 0] cm
q
/DeviceGray {} CS
[0] SC
/DeviceGray {} cs
[0] sc
Q
[1 0 0 1 -99.213 141.732] cm
Q
Q
-6.69492 -3.34738 m
-49.99866 -24.99937 l
-61.98642 -33.6396 m
-108.09427 -79.74756 l
-106.66556 -88.40105 m
-35.0417 -124.21307 l
-25.9774 -120.45256 m
-16.54263 -92.14845 l
-12.94156 -77.6492 m
-1.23169 -7.39116 l
S
7.48517 0 m
105.90202 0 l
107.14001 -4.16505 m
-7.92615 -80.87555 l
-12.94156 -77.6492 m
-1.23169 -7.39116 l
S
-7.92615 -80.87534 m
107.14001 -4.16481 l
108.71117 -5.84482 m
61.3924 -64.9935 l
49.34 -72.3376 m
-6.81975 -83.56989 l
S
78.22058 -97.74318 m
134.3804 -86.51093 l
134.34282 -83.8086 m
64.08478 -72.0987 l
S
q
/DeviceRGB {} cs
[1 0 0] sc
/DeviceRGB {} CS
[1 0 0] SC
4.98138 w
-6.81975 -83.56976 m
49.34 -72.33751 l
60.05461 -77.58864 m
67.51958 -92.51888 l
66.70192 -105.46092 m
46.68503 -135.48692 l
37.22736 -136.44118 m
-8.88042 -90.33322 l
S
/DeviceGray {} cs
[0] sc
/DeviceGray {} CS
[0] SC
Q
-16.54276 -92.14845 m
-25.9775 -120.45256 l
-20.99316 -129.03122 m
35.16658 -140.2635 l
S
108.71117 -5.84482 m
61.3924 -64.9935 l
64.08478 -72.09879 m
134.34282 -83.80872 l
139.36473 -77.93236 m
115.7566 -7.10805 l
S
50.00539 -141.73402 m
91.7286 -141.73402 l
106.32199 -139.36464 m
134.62585 -129.92987 l
141.73402 -120.07541 m
141.73402 -92.52559 l
135.23108 -88.75626 m
49.02312 -138.01805 l
S
Q
Q
Q
showpage
%%PageTrailer
pdfEndPage
%%Trailer
end
%%DocumentSuppliedResources:
%%EOF
